%YAML 1.1
%TAG !u! tag:unity3d.com,2011:
--- !u!1045 &1
EditorBuildSettings:
  m_ObjectHideFlags: 0
  serializedVersion: 2
  m_Scenes:
  - enabled: 1
    path: Assets/Scenes/MainMenu.unity
    guid: 73d3a9cdd225f1049934851eb16f3628
  - enabled: 1
    path: Assets/Scenes/game.unity
    guid: 42a5fa4f1391d3e489aed84dbd47d6d9
  m_configObjects: {}
