%YAML 1.1
%TAG !u! tag:unity3d.com,2011:
--- !u!74 &7400000
AnimationClip:
  m_ObjectHideFlags: 0
  m_CorrespondingSourceObject: {fileID: 0}
  m_PrefabInstance: {fileID: 0}
  m_PrefabAsset: {fileID: 0}
  m_Name: Carnotaurus_walk
  serializedVersion: 6
  m_Legacy: 0
  m_Compressed: 0
  m_UseHighQualityCurve: 1
  m_RotationCurves: []
  m_CompressedRotationCurves: []
  m_EulerCurves: []
  m_PositionCurves: []
  m_ScaleCurves: []
  m_FloatCurves: []
  m_PPtrCurves:
  - curve:
    - time: 0
      value: {fileID: 21300000, guid: 98ca831bb9ff0a44a87095e85b8537c9, type: 3}
    - time: 0.1
      value: {fileID: 21300000, guid: 1a370537aaee85641936c49a13f1fefa, type: 3}
    - time: 0.2
      value: {fileID: 21300000, guid: 0db5c96f23b472d4da7fcf9165baa993, type: 3}
    - time: 0.3
      value: {fileID: 21300000, guid: fbf9c659cdd912d4e985b5af712fedd1, type: 3}
    - time: 0.4
      value: {fileID: 21300000, guid: 354a02a5f7bcb41409cf6eac3e153d72, type: 3}
    - time: 0.5
      value: {fileID: 21300000, guid: 91d6b0ad031a60e45a17c914822d8a57, type: 3}
    - time: 0.6
      value: {fileID: 21300000, guid: 42531957ce29d124a80132575631a443, type: 3}
    - time: 0.7
      value: {fileID: 21300000, guid: 324215a6e28082a4aa73e7017cb8a779, type: 3}
    - time: 0.8
      value: {fileID: 21300000, guid: e379a52e490f81d43b17f6795e7dce5b, type: 3}
    - time: 0.9
      value: {fileID: 21300000, guid: 5fe13e31b20a4c444b539139bdcb31a4, type: 3}
    - time: 1
      value: {fileID: 21300000, guid: 98ca831bb9ff0a44a87095e85b8537c9, type: 3}
    attribute: m_Sprite
    path: 
    classID: 212
    script: {fileID: 0}
  m_SampleRate: 60
  m_WrapMode: 0
  m_Bounds:
    m_Center: {x: 0, y: 0, z: 0}
    m_Extent: {x: 0, y: 0, z: 0}
  m_ClipBindingConstant:
    genericBindings:
    - serializedVersion: 2
      path: 0
      attribute: 0
      script: {fileID: 0}
      typeID: 212
      customType: 23
      isPPtrCurve: 1
    pptrCurveMapping:
    - {fileID: 21300000, guid: 98ca831bb9ff0a44a87095e85b8537c9, type: 3}
    - {fileID: 21300000, guid: 1a370537aaee85641936c49a13f1fefa, type: 3}
    - {fileID: 21300000, guid: 0db5c96f23b472d4da7fcf9165baa993, type: 3}
    - {fileID: 21300000, guid: fbf9c659cdd912d4e985b5af712fedd1, type: 3}
    - {fileID: 21300000, guid: 354a02a5f7bcb41409cf6eac3e153d72, type: 3}
    - {fileID: 21300000, guid: 91d6b0ad031a60e45a17c914822d8a57, type: 3}
    - {fileID: 21300000, guid: 42531957ce29d124a80132575631a443, type: 3}
    - {fileID: 21300000, guid: 324215a6e28082a4aa73e7017cb8a779, type: 3}
    - {fileID: 21300000, guid: e379a52e490f81d43b17f6795e7dce5b, type: 3}
    - {fileID: 21300000, guid: 5fe13e31b20a4c444b539139bdcb31a4, type: 3}
    - {fileID: 21300000, guid: 98ca831bb9ff0a44a87095e85b8537c9, type: 3}
  m_AnimationClipSettings:
    serializedVersion: 2
    m_AdditiveReferencePoseClip: {fileID: 0}
    m_AdditiveReferencePoseTime: 0
    m_StartTime: 0
    m_StopTime: 1.0166667
    m_OrientationOffsetY: 0
    m_Level: 0
    m_CycleOffset: 0
    m_HasAdditiveReferencePose: 0
    m_LoopTime: 1
    m_LoopBlend: 0
    m_LoopBlendOrientation: 0
    m_LoopBlendPositionY: 0
    m_LoopBlendPositionXZ: 0
    m_KeepOriginalOrientation: 0
    m_KeepOriginalPositionY: 1
    m_KeepOriginalPositionXZ: 0
    m_HeightFromFeet: 0
    m_Mirror: 0
  m_EditorCurves: []
  m_EulerEditorCurves: []
  m_HasGenericRootTransform: 0
  m_HasMotionFloatCurves: 0
  m_Events: []
