%YAML 1.1
%TAG !u! tag:unity3d.com,2011:
--- !u!74 &7400000
AnimationClip:
  m_ObjectHideFlags: 0
  m_CorrespondingSourceObject: {fileID: 0}
  m_PrefabInstance: {fileID: 0}
  m_PrefabAsset: {fileID: 0}
  m_Name: Parasaurolopus_idle
  serializedVersion: 6
  m_Legacy: 0
  m_Compressed: 0
  m_UseHighQualityCurve: 1
  m_RotationCurves: []
  m_CompressedRotationCurves: []
  m_EulerCurves: []
  m_PositionCurves: []
  m_ScaleCurves: []
  m_FloatCurves: []
  m_PPtrCurves:
  - curve:
    - time: 0
      value: {fileID: 21300000, guid: 125b26b2ed8375142a61badee1d3ce4b, type: 3}
    - time: 0.1
      value: {fileID: 21300000, guid: d8a99deda1ebbd74fa5a01daf0f800dd, type: 3}
    - time: 0.2
      value: {fileID: 21300000, guid: 5cd84f7136f77ac4382a0b201cf05a9c, type: 3}
    - time: 0.3
      value: {fileID: 21300000, guid: 6d5fa40446c07c349973ecde4b3a611f, type: 3}
    - time: 0.4
      value: {fileID: 21300000, guid: 5eb1c1f131c5a464bb4436f467bdaff7, type: 3}
    - time: 0.5
      value: {fileID: 21300000, guid: 2df447b93dae9ce4590b751d4bc88d94, type: 3}
    - time: 0.6
      value: {fileID: 21300000, guid: 213c5ba33b32f5543b78ddceb5a424a8, type: 3}
    - time: 0.7
      value: {fileID: 21300000, guid: b2893da737ac0a44d9398774f58babbb, type: 3}
    - time: 0.8
      value: {fileID: 21300000, guid: f7e717c3b198e7c4abf1c86f28d5e442, type: 3}
    - time: 0.9
      value: {fileID: 21300000, guid: 377d38e9f2ca51b4396a80dfcb0f34ee, type: 3}
    - time: 1
      value: {fileID: 21300000, guid: 125b26b2ed8375142a61badee1d3ce4b, type: 3}
    attribute: m_Sprite
    path: 
    classID: 212
    script: {fileID: 0}
  m_SampleRate: 60
  m_WrapMode: 0
  m_Bounds:
    m_Center: {x: 0, y: 0, z: 0}
    m_Extent: {x: 0, y: 0, z: 0}
  m_ClipBindingConstant:
    genericBindings:
    - serializedVersion: 2
      path: 0
      attribute: 0
      script: {fileID: 0}
      typeID: 212
      customType: 23
      isPPtrCurve: 1
    pptrCurveMapping:
    - {fileID: 21300000, guid: 125b26b2ed8375142a61badee1d3ce4b, type: 3}
    - {fileID: 21300000, guid: d8a99deda1ebbd74fa5a01daf0f800dd, type: 3}
    - {fileID: 21300000, guid: 5cd84f7136f77ac4382a0b201cf05a9c, type: 3}
    - {fileID: 21300000, guid: 6d5fa40446c07c349973ecde4b3a611f, type: 3}
    - {fileID: 21300000, guid: 5eb1c1f131c5a464bb4436f467bdaff7, type: 3}
    - {fileID: 21300000, guid: 2df447b93dae9ce4590b751d4bc88d94, type: 3}
    - {fileID: 21300000, guid: 213c5ba33b32f5543b78ddceb5a424a8, type: 3}
    - {fileID: 21300000, guid: b2893da737ac0a44d9398774f58babbb, type: 3}
    - {fileID: 21300000, guid: f7e717c3b198e7c4abf1c86f28d5e442, type: 3}
    - {fileID: 21300000, guid: 377d38e9f2ca51b4396a80dfcb0f34ee, type: 3}
    - {fileID: 21300000, guid: 125b26b2ed8375142a61badee1d3ce4b, type: 3}
  m_AnimationClipSettings:
    serializedVersion: 2
    m_AdditiveReferencePoseClip: {fileID: 0}
    m_AdditiveReferencePoseTime: 0
    m_StartTime: 0
    m_StopTime: 1.0166667
    m_OrientationOffsetY: 0
    m_Level: 0
    m_CycleOffset: 0
    m_HasAdditiveReferencePose: 0
    m_LoopTime: 1
    m_LoopBlend: 0
    m_LoopBlendOrientation: 0
    m_LoopBlendPositionY: 0
    m_LoopBlendPositionXZ: 0
    m_KeepOriginalOrientation: 0
    m_KeepOriginalPositionY: 1
    m_KeepOriginalPositionXZ: 0
    m_HeightFromFeet: 0
    m_Mirror: 0
  m_EditorCurves: []
  m_EulerEditorCurves: []
  m_HasGenericRootTransform: 0
  m_HasMotionFloatCurves: 0
  m_Events: []
